{
  "mappings": [
    {
      "request": {
        "urlPattern": "/mas/alerts(\\?.*)?",
        "method": "GET"
      },
      "response": {
        "status": 200,
        "jsonBody": {
          "content": [
            {
              "id": 1,
              "type": {
                "description": "Email/Text from offender",
                "editable": true
              },
              "crn": "X000001",
              "date": "2025-07-10",
              "description": "Email from offending community team",
              "alertNotes": [
                {
                  "id": 0,
                  "createdBy": "Custody Status Service",
                  "createdByDate": "2024-07-19",
                  "note": "Person did not attend appointment at 2pm. No contact made prior to appointment time. Phone call attempted but no answer.",
                  "hasNoteBeenTruncated": false
                }
              ],
              "name": {
                "forename": "Caroline",
                "middleName": "",
                "surname": "Wolff"
              },
              "officer": {
                "name": {
                  "forename": "Officer",
                  "middleName": "",
                  "surname": "Test"
                },
                "code": "STMOR01"
              },
              "riskLevel": "MEDIUM"
            },
            {
              "id": 2,
              "type": {
                "description": "Appointment attendance failure",
                "editable": true
              },
              "crn": "X000002",
              "date": "2025-07-10",
              "description": "Failed to attend scheduled appointment",
              "alertNote": {
                "id": 0,
                "createdBy": "Custody Status Service",
                "createdByDate": "2024-07-19",
                "note": "Person did not attend appointment at 2pm. No contact made prior to appointment time. Phone call attempted but no answer.",
                "hasNoteBeenTruncated": false
              },
              "name": {
                "forename": "Caroline",
                "middleName": "",
                "surname": "Wolff"
              },
              "officer": {
                "name": {
                  "forename": "Officer",
                  "middleName": "",
                  "surname": "Test"
                },
                "code": "JFROS01"
              },
              "riskLevel": "HIGH"
            },
            {
              "id": 3,
              "type": {
                "description": "MAPPA meeting",
                "editable": false
              },
              "crn": "X777916",
              "date": "2025-07-10",
              "description": "Multi-agency meeting scheduled",
              "name": {
                "forename": "Caroline",
                "middleName": "",
                "surname": "Wolff"
              },
              "officer": {
                "name": {
                  "forename": "Officer",
                  "middleName": "",
                  "surname": "Test"
                },
                "code": "TNIXO01"
              },
              "riskLevel": "MEDIUM"
            },
            {
              "id": 4,
              "type": {
                "description": "Drug Test (DRR)",
                "editable": true
              },
              "crn": "X778160",
              "date": "2025-07-09",
              "description": "Drug test positive result",
              "name": {
                "forename": "Alton",
                "middleName": "",
                "surname": "Berge"
              },
              "officer": {
                "name": {
                  "forename": "Officer",
                  "middleName": "",
                  "surname": "Test"
                },
                "code": "DSABA01"
              },
              "riskLevel": "HIGH"
            },
            {
              "id": 5,
              "type": {
                "description": "Arrest incident",
                "editable": false
              },
              "crn": "X801756",
              "date": "2025-07-09",
              "name": {
                "forename": "Kari",
                "middleName": "",
                "surname": "Kari"
              },
              "officer": {
                "name": {
                  "forename": "Officer",
                  "middleName": "",
                  "surname": "Test"
                },
                "code": "MKHAN01"
              },
              "riskLevel": "LOW"
            },
            {
              "id": 6,
              "type": {
                "description": "AP - medication not in possession",
                "editable": true
              },
              "crn": "X000001",
              "date": "2025-07-08",
              "name": {
                "forename": "Caroline",
                "middleName": "",
                "surname": "Wolff"
              },
              "officer": {
                "name": {
                  "forename": "Officer",
                  "middleName": "",
                  "surname": "Test"
                },
                "code": "PANGE01"
              },
              "riskLevel": "VERY HIGH"
            },
            {
              "id": 7,
              "type": {
                "description": "Home visit",
                "editable": true
              },
              "crn": "X000002",
              "date": "2025-07-08",
              "description": "Unannounced home visit completed",
              "name": {
                "forename": "Sarah",
                "middleName": "Jane",
                "surname": "Collins"
              },
              "officer": {
                "name": {
                  "forename": "Officer",
                  "middleName": "",
                  "surname": "Test"
                },
                "code": "SCOLL01"
              },
              "riskLevel": "LOW"
            },
            {
              "id": 8,
              "type": {
                "description": "Breach proceedings",
                "editable": false
              },
              "crn": "X000002",
              "date": "2025-07-07",
              "description": "Breach proceedings initiated",
              "alertNotes": [
                {
                  "id": 0,
                  "createdBy": "Custody Status Service",
                  "createdByDate": "2024-07-19",
                  "note": "From the earliest flickering campfires, humanity has looked up. The night sky, a vast, dark canvas sprinkled with diamond-dust stars, has always been a mirror reflecting our deepest questions: Where do we come from? Are we alone? What lies beyond the blue horizon? This innate curiosity, this cosmic yearning, has propelled us from simple stargazers to sophisticated explorers, forever bound to the silent, beckoning universe. Our story, in essence, is written in stardust, a narrative of celestial evolution and terrestrial ambition, a quest to understand our origins and our ultimate destiny among the galaxies.\nThe universe began not with a whisper, but with a bang—the Big Bang, an event that birthed space, time, and all matter from a singularity of unimaginable density. In the ensuing eons, primordial hydrogen and helium coalesced into the first stars, massive celestial furnaces forging heavier elements like carbon, oxygen, and iron, the very building blocks of life. These stars lived and died in spectacular supernova explosions, scattering these elements across space, seeding the cosmic clouds from which new stars and planets would form. Our sun, a second or third-generation star, and Earth, a rocky planet orbiting it, are thus direct descendants of stellar death, making us, quite literally, children of the stars. This profound connection underscores our deep biological and philosophical ties to the cosmos, a constant reminder that our existence is a cosmic accident of breathtaking beauty.\nFor millennia, our understanding of this vastness was limited to myth and philosophy. Ancient civilizations charted the heavens, creating intricate calendars and navigating vast oceans by the stars. The Greeks posited a geocentric universe, with Earth at its center, a comforting but ultimately flawed view. Then came Copernicus, Galileo, Kepler, and Newton, who, through observation, mathematics, and revolutionary thought, shattered these Earth-centric views, revealing a heliocentric solar system and universal laws of motion and gravity that govern celestial mechanics. The Newtonian universe, a clockwork mechanism predictable and grand, set the stage for modern astronomy.\nThe 20th century brought Einstein's relativity, transforming our perception of space and time into a dynamic, interwoven fabric, spacetime, curved by mass and energy. This paved the way for understanding black holes, neutron stars, and the expanding universe, a universe not static but dynamically evolving. Edwin Hubble's discovery that galaxies are receding from us, and that the farther they are, the faster they move, confirmed the universe's expansion, a cornerstone of modern cosmology.\nToday, telescopes like the Hubble and the James Webb Space Telescope peer back to the universe's infancy, capturing light from galaxies formed mere millions of years after the Big Bang, revealing the breathtaking tapestry of cosmic evolution in unprecedented detail. Radio telescopes listen for whispers from distant pulsars and quasars, while particle detectors underground search for elusive dark matter and dark energy, the mysterious components that make up most of the universe's mass and energy.\nBut the yearning isn't just observational; it's about reaching out. The Space Race of the 20th century, fueled by Cold War rivalry, catapulted humanity beyond Earth's cradle. The Apollo missions landed humans on the Moon, a monumental achievement that proved our capacity for interplanetary travel, even if temporarily. Now, a new era of space exploration dawns, not just driven by national pride, but by scientific curiosity, commercial enterprise, and the search for resources, knowledge, and a potential backup for humanity. The International Space Station (ISS) serves as a permanent outpost, a microgravity laboratory where scientists study the effects of space on biology and develop technologies for longer journeys.\nMars, the Red Planet, stands as the next great frontier. Robotic rovers like Curiosity and Perseverance are meticulously searching for signs of past microbial life, analyzing soil and rock, and testing technologies for eventual human colonization. The prospect of terraforming Mars, or at least establishing self-sustaining habitats, represents humanity's boldest endeavor yet, a testament to our resilience and our relentless drive to expand our horizons.\nBeyond Mars, the gas giants and their intriguing moons beckon. Europa, a moon of Jupiter, and Enceladus, a moon of Saturn, harbor subsurface oceans of liquid water, making them prime candidates for harboring extraterrestrial life within our solar system. Missions like Europa Clipper aim to investigate these icy worlds, searching for biosignatures that could confirm life exists beyond Earth.\nThe search for life extends far beyond our solar system. The Kepler and TESS missions have discovered thousands of exoplanets, planets orbiting other stars, many residing in the\n",
                  "hasNoteBeenTruncated": true
                }
              ],
              "name": {
                "forename": "David",
                "middleName": "Andrew",
                "surname": "Thompson"
              },
              "officer": {
                "name": {
                  "forename": "Officer",
                  "middleName": "",
                  "surname": "Test"
                },
                "code": "DTHOM01"
              },
              "riskLevel": "MEDIUM"
            },
            {
              "id": 9,
              "type": {
                "description": "Risk assessment review",
                "editable": true
              },
              "crn": "X000002",
              "date": "2025-07-07",
              "description": "Annual risk assessment due",
              "alertNotes": [
                {
                  "id": 0,
                  "createdBy": "Custody Status Service",
                  "createdByDate": "2024-07-19",
                  "note": "Risk assessment review is due this week. All relevant documents and information gathered for the assessment. Previous score was Medium.",
                  "hasNoteBeenTruncated": true
                },
                {
                  "id": 1,
                  "createdBy": "Custody Status Service",
                  "createdByDate": "2024-07-19",
                  "note": "Safeguarding concern raised regarding vulnerable adult in household. Multi-agency referral submitted and case conference scheduled for next week.",
                  "hasNoteBeenTruncated": false
                }
              ],
              "name": {
                "forename": "Caroline",
                "middleName": "",
                "surname": "Wolff"
              },
              "officer": {
                "name": {
                  "forename": "Officer",
                  "middleName": "",
                  "surname": "Test"
                },
                "code": "EWILS01"
              },
              "riskLevel": "HIGH"
            },
            {
              "id": 10,
              "type": {
                "description": "Safeguarding concern",
                "editable": false
              },
              "crn": "X000002",
              "date": "2025-07-06",
              "description": "Safeguarding issue identified",
              "alertNotes": [
                {
                  "id": 0,
                  "createdBy": "Custody Status Service",
                  "createdByDate": "2024-07-19",
                  "note": "Safeguarding concern raised regarding vulnerable adult in household. Multi-agency referral submitted and case conference scheduled for next week.",
                  "hasNoteBeenTruncated": false
                }
              ],
              "alertNote": {
                "id": 0,
                "createdBy": "Custody Status Service",
                "createdByDate": "2024-07-19",
                "note": "Person did not attend appointment at 2pm. No contact made prior to appointment time. Phone call attempted but no answer.",
                "hasNoteBeenTruncated": false
              },
              "name": {
                "forename": "Caroline",
                "middleName": "",
                "surname": "Wolff"
              },
              "officer": {
                "name": {
                  "forename": "Officer",
                  "middleName": "",
                  "surname": "Test"
                },
                "code": "MROBE01"
              },
              "riskLevel": "VERY HIGH"
            }
          ],
          "totalResults": 12,
          "totalPages": 3,
          "page": 0,
          "size": 10
        },
        "headers": {
          "Content-Type": "application/json"
        }
      }
    },
    {
      "request": {
        "urlPattern": "/mas/alerts(\\?.*)?",
        "method": "PUT"
      },
      "response": {
        "status": 200,
        "jsonBody": {},
        "headers": {
          "Content-Type": "application/json"
        }
      }
    }
  ]
}
